…
```
## Warning: package 'ggplot2' was built under R version 3.5.3
```

```r
## Summarize the activity by calculating the mean and median of steps taken each day

actv_summary_date <- activity %>% group_by(date) %>% summarise(steps_mean= mean(steps, na.rm=TRUE), steps_median= median(steps, na.rm=TRUE), steps_min = min(steps, na.rm=TRUE), steps_count_unique= n_distinct(steps,na.rm=TRUE))

actv_summary_date
```

```
## # A tibble: 61 x 5
##    date       steps_mean steps_median steps_min steps_count_unique
##    <date>          <dbl>        <dbl>     <dbl>              <int>
##  1 2012-10-01    NaN               NA       Inf                  0
##  2 2012-10-02      0.438            0         0                  3
##  3 2012-10-03     39.4              0         0                 65
##  4 2012-10-04     42.1              0         0                 76
##  5 2012-10-05     46.2              0         0                 73
##  6 2012-10-06     53.5              0         0                 86
##  7 2012-10-07     38.2              0         0                 82
##  8 2012-10-08    NaN               NA       Inf                  0
##  9 2012-10-09     44.5              0         0                 73
## 10 2012-10-10     34.4              0         0                 80
## # ... with 51 more rows
```
…
